{
  "name": "ServiceStat",
  "plural": "stats",
  "base": "PersistedModel",
  "idInjection": true,
  "options": {
    "validateUpsert": true
  },
  "properties": {
    "service_id": {
      "type": "number",
      "required": true
    },
    "date": {
      "type": "date",
      "required": true
    },
    "count": {
      "type": "number",
      "required": true
    }
  },
  "validations": [],
  "relations": {},
  "acls": [


          {
               "accessType": "*",
               "principalType": "ROLE",
               "principalId": "$everyone",
               "permission": "DENY"
             }
    ,
        {
             "accessType": "*",
             "principalType": "ROLE",
             "principalId": "$authenticated",
             "permission": "ALLOW"
           }
  ],
  "methods": {}
}
